{
  "images" : [
    {
      "idiom" : "universal",
      "scale" : "1x",
      "filename" : "phone_icon_1x.png"
    },
    {
      "idiom" : "universal",
      "scale" : "2x",
      "filename" : "phone_icon_2x.png"
    },
    {
      "idiom" : "universal",
      "scale" : "3x",
      "filename" : "phone_icon_3x.png"
    }
  ],
  "info" : {
    "version" : 1,
    "author" : "xcode"
  }
}